%YAML 1.1
%TAG !u! tag:unity3d.com,2011:
--- !u!114 &11400000
MonoBehaviour:
  m_ObjectHideFlags: 0
  m_CorrespondingSourceObject: {fileID: 0}
  m_PrefabInstance: {fileID: 0}
  m_PrefabAsset: {fileID: 0}
  m_GameObject: {fileID: 0}
  m_Enabled: 1
  m_EditorHideFlags: 0
  m_Script: {fileID: 11500000, guid: 95c0810605071684ab47178efad93ac1, type: 3}
  m_Name: PoliteWindowEnjoyerLookForSitStrategy
  m_EditorClassIdentifier: 
  _strategies:
  - {fileID: 11400000, guid: 102778016dbfa0f4ba3a1b0695d17821, type: 2}
  - {fileID: 11400000, guid: dd899e1a3f9c57842bb24aa94bf45ed3, type: 2}
